fortedata: Belowground Data • fortedata
…
                        Jeff Atkins and Kayla Mathes

            2020-07-09

      fd_belowground_vignette.Rmd

Belowground Measurements

The fd_belowground() script within fortedata currently includes one function:

fd_soil_respiration() which returns a single dataset of 2780 observations each of soil CO2 efflux (μmol CO2 m-2 s-1), soil temperature (°C; integrated from 0 to 7 cm depth), and volumetric water content (%) for the year 2019 (Figs. 3, 4; Table S5).

fd_soil_respiration()
## # A tibble: 2,791 x 11
##    subplot_id replicate  plot subplot date       timestamp          
##    <chr>      <chr>     <int> <chr>   <date>     <dttm>             
##  1 A03E       A             3 E       2019-05-15 2019-05-15 12:53:00
##  2 A03E       A             3 E       2019-05-15 2019-05-15 12:55:00
##  3 A03E       A             3 E       2019-05-15 2019-05-15 12:57:00
##  4 A03E       A             3 E       2019-05-15 2019-05-15 12:58:00
##  5 A03E       A             3 E       2019-05-15 2019-05-15 13:01:00
##  6 A03E       A             3 E       2019-05-15 2019-05-15 13:02:00
##  7 A03E       A             3 E       2019-05-15 2019-05-15 13:04:00
##  8 A03E       A             3 E       2019-05-15 2019-05-15 13:05:00
##  9 A03E       A             3 E       2019-05-15 2019-05-15 13:07:00
## 10 A03E       A             3 E       2019-05-15 2019-05-15 13:09:00
## # ... with 2,781 more rows, and 5 more variables: nested_subplot <chr>,
## #   run <int>, soil_co2_efflux <dbl>, soil_temp <dbl>, vwc <dbl>
…
