fortedata: Data Collection, Preparation, and Management • fortedata
…
Be lowercase with "_" separating words

Include units if quantitative (i.e. “DBH_cm”; Flux units excluded)

Be added to forte_table_metadata.csv (if not already listed)

Required columns:

subplot_id – replicate (“A-”) plot (“-01-”) subplot (“-E”) (i.e “A01E”); SHOULD NOT include separate replicate, plot, and subplot columns

date – Date of data collection (YYYY-MM-DD)

# call forte_table_metadata
fd_metadata()
## # A tibble: 240 x 5
##    table     field     description                                  class  units
##    <chr>     <chr>     <chr>                                        <chr>  <chr>
##  1 fd_inven~ subplot_~ <NA>                                         chara~ <NA> 
##  2 fd_inven~ tag       Tree tag ID number                           integ~ <NA> 
##  3 fd_inven~ species   Species code from the USDA Plants Database   chara~ <NA> 
##  4 fd_inven~ dbh_cm    Bole diameter at 1.37 m                      numer~ cm   
##  5 fd_inven~ health_s~ Live (L), moribund (M), or dead (D)          chara~ <NA> 
##  6 fd_inven~ canopy_s~ Overstory dominant (OD), overstory submissi~ chara~ <NA> 
##  7 fd_inven~ date      Date of measurement                          date   <NA> 
##  8 fd_inven~ notes     <NA>                                         chara~ <NA> 
##  9 fd_inven~ replicate (from plots table)                           chara~ <NA> 
## 10 fd_inven~ plot      (from plots table)                           integ~ <NA> 
## # ... with 230 more rows
…
