fortedata: Forest Inventory Data • fortedata
…
Forest Inventory Data

The fd_inventory() script within fortedata currently includes one function:

fd_inventory() returns a single dataset of the forest inventory data, including diameter-at-breast height (DBH), latitude, longitude, and biomass for each measured stem, as well as information on vitality and canopy position. There are 3165 observations in the dataset, all measured in 2018.

fd_inventory()
## # A tibble: 3,165 x 11
##    subplot_id replicate  plot subplot date         tag species dbh_cm
##    <chr>      <chr>     <int> <chr>   <date>     <int> <chr>    <dbl>
##  1 A01E       A             1 E       2018-07-12  2772 POGR4     36.2
##  2 A01E       A             1 E       2018-07-12  2773 POGR4     41.6
##  3 A01E       A             1 E       2018-07-12  2774 FAGR      10.8
##  4 A01E       A             1 E       2018-07-12  2775 FAGR      26.2
##  5 A01E       A             1 E       2018-07-12  2776 FAGR      19.5
##  6 A01E       A             1 E       2018-07-12  2777 POGR4     26.5
##  7 A01E       A             1 E       2018-07-12  2778 ACSA3     16  
##  8 A01E       A             1 E       2018-07-12  2779 ACSA3      9.8
##  9 A01E       A             1 E       2018-07-12  2780 FAGR       9.7
## 10 A01E       A             1 E       2018-07-12  2781 QURU      42.6
## # ... with 3,155 more rows, and 3 more variables: health_status <chr>,
## #   canopy_status <chr>, notes <chr>
…
