fortedata: Ecophsyiology Data • fortedata
…
Leaf spectrometry

We collected leaf reflectance spectra, used as a proxy for leaf biochemistry (including N content; Yang et al. 2017), with a CI-710 miniature leaf spectrometer (CID Biosciences, Camas, WA). We measured axial sides of leaves that met the minimum area requirement for the instrument (20 mm x 20 mm) in the range of visible to near infrared light (400-950 nm) immediately following physiological measurements and while still attached to trees. Because pine needles did not meet the minimum requirement for leaf area, only broadleaf specimens were available for measurement. Data output included waveform and individual wavelength spectral data, as well as a suite of derived vegetation indices including the normalized difference vegetation index (NDVI).

fd_leaf_spectrometry()
## # A tibble: 7,221 x 9
##    subplot_id replicate  plot subplot date       tree_id species index
##    <chr>      <chr>     <int> <chr>   <date>     <chr>   <chr>   <chr>
##  1 DO1E       D             1 E       2018-07-22 CAN01   ACRU    ARI1 
##  2 DO1E       D             1 E       2018-07-22 CAN01   ACRU    ARI2 
##  3 DO1E       D             1 E       2018-07-22 CAN01   ACRU    CRI1 
##  4 DO1E       D             1 E       2018-07-22 CAN01   ACRU    CRI2 
##  5 DO1E       D             1 E       2018-07-22 CAN01   ACRU    SIPI 
##  6 DO1E       D             1 E       2018-07-22 CAN01   ACRU    FRI  
##  7 DO1E       D             1 E       2018-07-22 CAN01   ACRU    CNDVI
##  8 DO1E       D             1 E       2018-07-22 CAN01   ACRU    Ctr1 
##  9 DO1E       D             1 E       2018-07-22 CAN01   ACRU    Ctr2 
## 10 DO1E       D             1 E       2018-07-22 CAN01   ACRU    G    
## # ... with 7,211 more rows, and 1 more variable: index_value <dbl>
…
