fortedata: Litter Data • fortedata
…
      fd_litter_vignette.Rmd

Litter Data

The fd_remote_sensing() script within fortedata currently includes the following functions:

fd_litter() returns a single dataset of litter mass collected via litter traps (four in each subplot, at nested sampling points 1, 3, 5, 7). The data include the tare + oven-dried mass of leaves as well as the tare weight (the empty bag), by species, by subplot (Table S7). The data also include notations for “CWD”, the collection of coarse woody debris (e.g. sticks, branches), and “MIX”, fragments of leaves too small to identify to the species levels as well as other missed organic fragments in the basket. Litter mass can be calculated by subtracting the tare weight from the mass + tare. There are a total of 340 observations included in the package from 2018.

Litter Trap Data

Placeholder

fd_litter()
## # A tibble: 340 x 8
##    subplot_id replicate  plot subplot  year species bagtare_g bagmass_g
##    <chr>      <chr>     <int> <chr>   <int> <chr>       <dbl>     <dbl>
##  1 A04E       A             4 E        2018 QURU          7.2      13.9
##  2 A04E       A             4 E        2018 BEPA          7.1       7.1
##  3 A04E       A             4 E        2018 MISC          7.2      20.6
##  4 A04E       A             4 E        2018 CWD           7.2      20  
##  5 A02W       A             2 W        2018 FAGR         22.5      42.8
##  6 A02W       A             2 W        2018 POGR          6.9       9.1
##  7 A02W       A             2 W        2018 ACSA         22.5     106. 
##  8 A02W       A             2 W        2018 POGR         22.5     112. 
##  9 A02W       A             2 W        2018 QURU          6.9       8.5
## 10 A02W       A             2 W        2018 BEPA          6.9       7.1
## # ... with 330 more rows
…
