fortedata: Remote Sensing Data • fortedata
…
fd_hemi_camera()
## Warning: `...` is not empty.
## 
## We detected these problematic arguments:
## * `needs_dots`
## 
## These dots only exist to allow future extensions and should be empty.
## Did you misspecify an argument?
## # A tibble: 1,189 x 11
##    subplot_id replicate  plot subplot nested_subplot date        ndvi
##    <chr>      <chr>     <int> <chr>            <int> <date>     <dbl>
##  1 A01E       A             1 E                    0 2018-07-23 0.796
##  2 A01E       A             1 E                    1 2018-07-23 0.827
##  3 A01E       A             1 E                    3 2018-07-23 0.739
##  4 A01E       A             1 E                    5 2018-07-23 0.847
##  5 A01E       A             1 E                    7 2018-07-23 0.822
##  6 A01W       A             1 W                    0 2018-07-23 0.792
##  7 A01W       A             1 W                    1 2018-07-23 0.862
##  8 A01W       A             1 W                    3 2018-07-23 0.861
##  9 A01W       A             1 W                    5 2018-07-23 0.783
## 10 A01W       A             1 W                    7 2018-07-23 0.786
## # ... with 1,179 more rows, and 4 more variables: gap_fraction <dbl>,
## #   openness <dbl>, lai_cam <dbl>, clumping_index <dbl>
…
fd_canopy_structure()
## Warning: `...` is not empty.
## 
## We detected these problematic arguments:
## * `needs_dots`
## 
## These dots only exist to allow future extensions and should be empty.
## Did you misspecify an argument?
## # A tibble: 129 x 56
##    subplot_id replicate  plot subplot  year mean_height_mean height_2
##    <chr>      <chr>     <int> <chr>   <int>            <dbl>    <dbl>
##  1 C01E       C             1 E        2019             9.75     4.87
##  2 C01E       C             1 E        2019            10.3      4.37
##  3 C01W       C             1 W        2019             9.57     4.31
##  4 C01W       C             1 W        2019             8.05     4.30
##  5 C02E       C             2 E        2019             9.61     5.97
##  6 C02E       C             2 E        2019            10.9      5.04
##  7 C02W       C             2 W        2019            11.8      7.00
##  8 C02W       C             2 W        2019            12.8      6.77
##  9 C03E       C             3 E        2019             7.11     3.13
## 10 C03E       C             3 E        2019             8.34     4.20
## # ... with 119 more rows, and 49 more variables: mean_height_median <dbl>,
## #   mean_height_var <dbl>, mean_height_rms <dbl>, transect_length <int>,
## #   can_max_ht <dbl>, moch <dbl>, can_max_ht_median <dbl>, vai_mean <dbl>,
## #   vai_sd <dbl>, vai_median <dbl>, vai_column_max <int>,
## #   vai_max_ht_mean <dbl>, vai_max_ht_sd <dbl>, vai_max_ht_median <dbl>,
## #   vai_max <dbl>, vai_mean_peak <dbl>, vai_peak_sd <dbl>,
## #   vai_peak_median <dbl>, deep_gaps <int>, deep_gap_fraction <dbl>,
## #   porosity <dbl>, std_std <dbl>, mean_std <dbl>, rugosity <dbl>,
## #   top_rugosity <dbl>, mean_return_ht <dbl>, sd_return_ht <dbl>,
…
Light Interception and Availbility

Light data–as fpar, the fraction of photosynthetically availble radiation absorbed by the canopy–was acquired using a Decagon LP-80 handheld ceptometer (Decagon Devices; Pullman, Washington). fpar is the ratio of PAR above the canopy, to that measured below. fpar is assumed to be the difference between the two values. Below-canopy PAR measurements for each plot were taken along north-south and east-west transects (simlar to PCL data above), with measurements taken every 1 to 3 m for a total of 30 - 60 measurements then averaged to make a subplot level mean of below-canopy PAR. Above-canopy PAR measuremnets were taken in open areas to ensure no interference from the canopy.

fd_ceptometer()
## Warning: `...` is not empty.
## 
## We detected these problematic arguments:
## * `needs_dots`
## 
## These dots only exist to allow future extensions and should be empty.
## Did you misspecify an argument?
## # A tibble: 48 x 9
##    subplot_id replicate  plot subplot timestamp           a_par b_par  fapar
##    <chr>      <chr>     <int> <chr>   <dttm>              <dbl> <dbl>  <dbl>
##  1 D01W       D             1 W       2018-07-25 10:45:00 1276.  61.8 0.0484
##  2 D03W       D             3 W       2018-07-25 10:56:00 1305.  98.3 0.0753
##  3 D04W       D             4 W       2018-07-25 11:07:00 1305. 345.  0.265 
##  4 D02W       D             2 W       2018-07-25 11:17:00 1367.  58   0.0424
##  5 C04W       C             4 W       2018-07-25 11:24:00 1439.  40.6 0.0282
##  6 C03W       C             3 W       2018-07-25 11:34:00 1383.  43.5 0.0315
##  7 C02W       C             2 W       2018-07-25 11:45:00 1464.  49.5 0.0338
##  8 C01W       C             1 W       2018-07-25 11:52:00 1475. 116   0.0786
##  9 B04W       B             4 W       2018-07-25 13:25:00 1708.  61.7 0.0361
## 10 B03E       B             3 E       2018-07-25 13:36:00 1768. 110.  0.0623
## # ... with 38 more rows, and 1 more variable: lai_cept <dbl>
…
