Basic statistics generated from the raw inventory data. — fd_inventory_summary • fortedata
…
ba_m2_ha (numeric): Basal area, square meters per hectare.

stocking_ha (numeric): Stocking, trees per hectare.

    Note

    For now this is pretty basic. More detailed summaries could be made,
e.g. by live/dead, species, etc.

    Examples

fd_inventory_summary()
#> Live and moribund trees only
#> # A tibble: 32 x 5
#>    replicate  plot subplot ba_m2_ha stocking_ha
#>    <chr>     <int> <chr>      <dbl>       <dbl>
#>  1 A             1 E           45.4         900
#>  2 A             1 W           48.2         950
#>  3 A             2 E           32.0         700
#>  4 A             2 W           50.7         840
#>  5 A             3 E           36.8         950
#>  6 A             3 W           35.8         950
#>  7 A             4 E           49.3         790
#>  8 A             4 W           40.5         840
#>  9 B             1 E           35.7         860
#> 10 B             1 W           42.7         960
#> # ... with 22 more rows
…
