Leaf spectrometry data — fd_leaf_spectrometry • fortedata
…
fd_leaf_spectrometry()

    Value

    A data.frame or tibble. Call fd_metadata for field metadata.

    Note

    Data were collected by Lisa Haber, Laura Hickey, Alexandra Barry, and Autym Shafer

    Examples

fd_leaf_spectrometry()

#> # A tibble: 7,221 x 9
#>    subplot_id replicate  plot subplot date       tree_id species index
#>    <chr>      <chr>     <int> <chr>   <date>     <chr>   <chr>   <chr>
#>  1 D01E       D             1 E       2018-07-22 CAN01   ACRU    ARI1 
#>  2 D01E       D             1 E       2018-07-22 CAN01   ACRU    ARI2 
#>  3 D01E       D             1 E       2018-07-22 CAN01   ACRU    CRI1 
#>  4 D01E       D             1 E       2018-07-22 CAN01   ACRU    CRI2 
#>  5 D01E       D             1 E       2018-07-22 CAN01   ACRU    SIPI 
#>  6 D01E       D             1 E       2018-07-22 CAN01   ACRU    FRI  
#>  7 D01E       D             1 E       2018-07-22 CAN01   ACRU    CNDVI
#>  8 D01E       D             1 E       2018-07-22 CAN01   ACRU    Ctr1 
#>  9 D01E       D             1 E       2018-07-22 CAN01   ACRU    Ctr2 
#> 10 D01E       D             1 E       2018-07-22 CAN01   ACRU    G    
#> # ... with 7,211 more rows, and 1 more variable: index_value <dbl>
…
